^C:\USERS\MERCAIONEL\DESKTOP\TEMA 3\CAMERA.CPP|C:\USERS\MERCAIONEL\DESKTOP\TEMA 3\CUB.CPP|C:\USERS\MERCAIONEL\DESKTOP\TEMA 3\LABIRINT.CPP|C:\USERS\MERCAIONEL\DESKTOP\TEMA 3\MAIN.CPP|C:\USERS\MERCAIONEL\DESKTOP\TEMA 3\SPHERE.CPP|C:\USERS\MERCAIONEL\DESKTOP\TEMA 3\TARGAIMAGE.CPP
C:\USERS\MERCAIONEL\DESKTOP\TEMA 3\DEBUG\TARGAIMAGE.SBR
C:\USERS\MERCAIONEL\DESKTOP\TEMA 3\DEBUG\SPHERE.SBR
C:\USERS\MERCAIONEL\DESKTOP\TEMA 3\DEBUG\MAIN.SBR
C:\USERS\MERCAIONEL\DESKTOP\TEMA 3\DEBUG\LABIRINT.SBR
C:\USERS\MERCAIONEL\DESKTOP\TEMA 3\DEBUG\CUB.SBR
C:\USERS\MERCAIONEL\DESKTOP\TEMA 3\DEBUG\CAMERA.SBR
C:\USERS\MERCAIONEL\DESKTOP\TEMA 3\DEBUG\CAMERA.OBJ
C:\USERS\MERCAIONEL\DESKTOP\TEMA 3\DEBUG\CUB.OBJ
C:\USERS\MERCAIONEL\DESKTOP\TEMA 3\DEBUG\LABIRINT.OBJ
C:\USERS\MERCAIONEL\DESKTOP\TEMA 3\DEBUG\MAIN.OBJ
C:\USERS\MERCAIONEL\DESKTOP\TEMA 3\DEBUG\SPHERE.OBJ
C:\USERS\MERCAIONEL\DESKTOP\TEMA 3\DEBUG\TARGAIMAGE.OBJ
^C:\USERS\MERCAIONEL\DESKTOP\TEMA 3\CAMERA.CPP
C:\USERS\MERCAIONEL\DESKTOP\TEMA 3\DEBUG\VC110.PDB
^C:\USERS\MERCAIONEL\DESKTOP\TEMA 3\CUB.CPP
C:\USERS\MERCAIONEL\DESKTOP\TEMA 3\DEBUG\VC110.PDB
C:\USERS\MERCAIONEL\DESKTOP\TEMA 3\DEBUG\CUB.SBR
C:\USERS\MERCAIONEL\DESKTOP\TEMA 3\DEBUG\CUB.OBJ
^C:\USERS\MERCAIONEL\DESKTOP\TEMA 3\LABIRINT.CPP
C:\USERS\MERCAIONEL\DESKTOP\TEMA 3\DEBUG\VC110.PDB
^C:\USERS\MERCAIONEL\DESKTOP\TEMA 3\MAIN.CPP
C:\USERS\MERCAIONEL\DESKTOP\TEMA 3\DEBUG\VC110.PDB
^C:\USERS\MERCAIONEL\DESKTOP\TEMA 3\SPHERE.CPP
C:\USERS\MERCAIONEL\DESKTOP\TEMA 3\DEBUG\VC110.PDB
^C:\USERS\MERCAIONEL\DESKTOP\TEMA 3\TARGAIMAGE.CPP
C:\USERS\MERCAIONEL\DESKTOP\TEMA 3\DEBUG\VC110.PDB
