^C:\USERS\MERCAIONEL\DESKTOP\SPG\SPG\TEMA 3\DEBUG\BOMBA.OBJ|C:\USERS\MERCAIONEL\DESKTOP\SPG\SPG\TEMA 3\DEBUG\CAMERA.OBJ|C:\USERS\MERCAIONEL\DESKTOP\SPG\SPG\TEMA 3\DEBUG\CUB.OBJ|C:\USERS\MERCAIONEL\DESKTOP\SPG\SPG\TEMA 3\DEBUG\INAMICI.OBJ|C:\USERS\MERCAIONEL\DESKTOP\SPG\SPG\TEMA 3\DEBUG\LABIRINT.OBJ|C:\USERS\MERCAIONEL\DESKTOP\SPG\SPG\TEMA 3\DEBUG\MAIN.OBJ|C:\USERS\MERCAIONEL\DESKTOP\SPG\SPG\TEMA 3\DEBUG\PORTAL.OBJ|C:\USERS\MERCAIONEL\DESKTOP\SPG\SPG\TEMA 3\DEBUG\RANDOMOBSTACLE.OBJ|C:\USERS\MERCAIONEL\DESKTOP\SPG\SPG\TEMA 3\DEBUG\SPHERE.OBJ|C:\USERS\MERCAIONEL\DESKTOP\SPG\SPG\TEMA 3\DEBUG\TARGAIMAGE.OBJ
/OUT:".\DEBUG/LAB6.EXE" /INCREMENTAL /NOLOGO /LIBPATH:glut kernel32.lib user32.lib gdi32.lib winspool.lib comdlg32.lib advapi32.lib shell32.lib ole32.lib oleaut32.lib uuid.lib odbc32.lib odbccp32.lib /MANIFEST /MANIFESTUAC:"level='asInvoker' uiAccess='false'" /manifest:embed /DEBUG /PDB:".\DEBUG/LAB6.PDB" /SUBSYSTEM:CONSOLE /TLBID:1 /DYNAMICBASE:NO /IMPLIB:".\DEBUG\LAB6.LIB" /MACHINE:X86 /SAFESEH .\DEBUG/BOMBA.OBJ.\DEBUG/CAMERA.OBJ.\DEBUG/CUB.OBJ.\DEBUG/INAMICI.OBJ.\DEBUG/LABIRINT.OBJ.\DEBUG/MAIN.OBJ.\DEBUG/PORTAL.OBJ.\DEBUG/RANDOMOBSTACLE.OBJ.\DEBUG/SPHERE.OBJ.\DEBUG/TARGAIMAGE.OBJ
^C:\USERS\MERCAIONEL\DESKTOP\SPG\SPG\TEMA 1\DEBUG\BOMBA.OBJ|C:\USERS\MERCAIONEL\DESKTOP\SPG\SPG\TEMA 1\DEBUG\CAMERA.OBJ|C:\USERS\MERCAIONEL\DESKTOP\SPG\SPG\TEMA 1\DEBUG\CUB.OBJ|C:\USERS\MERCAIONEL\DESKTOP\SPG\SPG\TEMA 1\DEBUG\INAMICI.OBJ|C:\USERS\MERCAIONEL\DESKTOP\SPG\SPG\TEMA 1\DEBUG\LABIRINT.OBJ|C:\USERS\MERCAIONEL\DESKTOP\SPG\SPG\TEMA 1\DEBUG\MAIN.OBJ|C:\USERS\MERCAIONEL\DESKTOP\SPG\SPG\TEMA 1\DEBUG\PORTAL.OBJ|C:\USERS\MERCAIONEL\DESKTOP\SPG\SPG\TEMA 1\DEBUG\RANDOMOBSTACLE.OBJ|C:\USERS\MERCAIONEL\DESKTOP\SPG\SPG\TEMA 1\DEBUG\SPHERE.OBJ|C:\USERS\MERCAIONEL\DESKTOP\SPG\SPG\TEMA 1\DEBUG\TARGAIMAGE.OBJ
/OUT:".\DEBUG/LAB6.EXE" /INCREMENTAL /NOLOGO /LIBPATH:glut kernel32.lib user32.lib gdi32.lib winspool.lib comdlg32.lib advapi32.lib shell32.lib ole32.lib oleaut32.lib uuid.lib odbc32.lib odbccp32.lib /MANIFEST /MANIFESTUAC:"level='asInvoker' uiAccess='false'" /manifest:embed /DEBUG /PDB:".\DEBUG/LAB6.PDB" /SUBSYSTEM:CONSOLE /TLBID:1 /DYNAMICBASE:NO /IMPLIB:".\DEBUG\LAB6.LIB" /MACHINE:X86 /SAFESEH .\DEBUG/BOMBA.OBJ.\DEBUG/CAMERA.OBJ.\DEBUG/CUB.OBJ.\DEBUG/INAMICI.OBJ.\DEBUG/LABIRINT.OBJ.\DEBUG/MAIN.OBJ.\DEBUG/PORTAL.OBJ.\DEBUG/RANDOMOBSTACLE.OBJ.\DEBUG/SPHERE.OBJ.\DEBUG/TARGAIMAGE.OBJ
