INDEX VERSION 1.126+/home/merca/Desktop/BitBucket/projects/Tema3AII/Lab 8 AII/.metadata/.plugins/org.eclipse.jdt.core
3860518804.index
1453598739.index
207581026.index
2913048097.index
2895934474.index
534805504.index
1124788806.index
954478507.index
2031085872.index
1159935248.index
1279675953.index
1961235293.index
3296295421.index
3823153737.index
1609788100.index
3640646894.index
